Inflation tools: seasonality
…
Added to the list management database

There are now a number of new lists in the list management database for inflation linked bonds from US, UK, DE, FR, IT and ES.

## # A tibble: 122 x 6
##    ListName   ISIN          SecurityDes       MaturityDate StartDate  EndDate   
##    <chr>      <chr>         <chr>             <date>       <date>     <date>    
##  1 EUR_Infl_~ DE0001030542~ DBRI 0.1 04/15/23 2023-04-15   2012-03-20 2023-04-15
##  2 EUR_Infl_~ DE0001030567~ DBRI 0.1 04/15/26 2026-04-15   2015-03-02 2026-04-15
##  3 EUR_Infl_~ DE0001030559~ DBRI 0 1/2 04/15~ 2030-04-15   2014-04-08 2030-04-15
##  4 EUR_Infl_~ DE0001030575~ DBRI 0.1 04/15/46 2046-04-15   2015-06-09 2046-04-15
##  5 EUR_Infl_~ ES00000128D4~ SPGBEI 0.3 11/30~ 2021-11-30   2016-04-29 2021-11-30
##  6 EUR_Infl_~ ES0000012B70~ SPGBEI 0.15 11/3~ 2023-11-30   2018-06-07 2023-11-30
##  7 EUR_Infl_~ ES00000126A4~ SPGBEI 1.8 11/30~ 2024-11-30   2014-05-12 2024-11-30
##  8 EUR_Infl_~ ES00000128S2~ SPGBEI 0.65 11/3~ 2027-11-30   2017-04-26 2027-11-30
##  9 EUR_Infl_~ ES00000127C8~ SPGBEI 1 11/30/30 2030-11-30   2015-03-23 2030-11-30
## 10 EUR_Infl_~ ES0000012C12~ SPGBEI 0.7 11/30~ 2033-11-30   2018-09-10 2033-11-30
## # ... with 112 more rows
…
